{
  "name": "8bit-movement",
  "id": "8bit-movement",
  "title": "Token movement 8bit style",
  "description": "Setup your tokens to have four directions when moving them with WASD or arrow keys.<br>Easy to setup using the Token HUD or Token config screen. <br>Configure settings to choose your preferred method or whether players or only the GM can make alterations.",
  "author": "Freeze",
  "authors": [
    {
      "name": "Freeze",
      "discord": "Freeze#2689"
    }
  ],
  "version": "1.1.0",
  "minimumCoreVersion": "9",
  "compatibleCoreVersion": "11",
  "compatibility": {
    "minimum": "9",
    "verified": "11"
  },
  "scripts": [],
  "esmodules": [
    "scripts/main.js"
  ],
  "styles": [
    "./css/8bitmovement.css"
  ],
  "languages": [
    {
      "lang": "en",
      "name": "English",
      "path": "lang/en.json"
    }
  ],
  "manifest": "https://gitlab.com/Freeze020/8bit-movement/-/raw/master/module.json",
  "url": "https://gitlab.com/Freeze020/8bit-movement",
  "download": "https://gitlab.com/Freeze020/8bit-movement/-/archive/v1.1.0/8bit-movement-v1.1.0.zip",
  "protected": false,
  "coreTranslation": false,
  "library": false
}